<svg width="614" height="16" viewBox="0 0 614 16" fill="none" xmlns="http://www.w3.org/2000/svg">
<path d="M0.81836 0.797743L0.818359 15.9434L91.6379 15.9434L91.6379 0.797744L0.81836 0.797743Z" fill="white"/>
<path d="M91.6387 0.799694L91.6387 15.9453L182.458 15.9453L182.458 0.799695L91.6387 0.799694Z" fill="#E03C31"/>
<path d="M189.703 0.799696L189.703 15.9453L192.045 15.9453L192.045 0.799696L189.703 0.799696Z" fill="white"/>
<path d="M198.143 0.799696L198.143 15.9453L200.484 15.9453L200.484 0.799696L198.143 0.799696Z" fill="white"/>
<path d="M206.566 0.799696L206.566 15.9453L208.908 15.9453L208.908 0.799696L206.566 0.799696Z" fill="white"/>
<path d="M214.99 0.799696L214.99 15.9453L217.332 15.9453L217.332 0.799696L214.99 0.799696Z" fill="white"/>
<path d="M223.412 0.799696L223.412 15.9453L225.754 15.9453L225.754 0.799696L223.412 0.799696Z" fill="white"/>
<path d="M231.834 0.799696L231.834 15.9453L234.176 15.9453L234.176 0.799696L231.834 0.799696Z" fill="white"/>
<path d="M240.277 0.799696L240.277 15.9453L242.619 15.9453L242.619 0.799696L240.277 0.799696Z" fill="white"/>
<path d="M248.699 0.799696L248.699 15.9453L251.041 15.9453L251.041 0.799696L248.699 0.799696Z" fill="white"/>
<path d="M257.123 0.799696L257.123 15.9453L259.465 15.9453L259.465 0.799696L257.123 0.799696Z" fill="white"/>
<path d="M265.549 0.799696L265.549 15.9453L267.891 15.9453L267.891 0.799696L265.549 0.799696Z" fill="white"/>
<path d="M273.973 0.799696L273.973 15.9453L276.314 15.9453L276.314 0.799696L273.973 0.799696Z" fill="white"/>
<path d="M282.41 0.799696L282.41 15.9453L284.752 15.9453L284.752 0.799696L282.41 0.799696Z" fill="white"/>
<path d="M290.834 0.799696L290.834 15.9453L293.176 15.9453L293.176 0.799696L290.834 0.799696Z" fill="white"/>
<path d="M299.258 0.799696L299.258 15.9453L301.599 15.9453L301.599 0.799696L299.258 0.799696Z" fill="white"/>
<path d="M307.68 0.799696L307.68 15.9453L310.021 15.9453L310.021 0.799696L307.68 0.799696Z" fill="white"/>
<path d="M316.102 0.799696L316.102 15.9453L318.443 15.9453L318.443 0.799696L316.102 0.799696Z" fill="white"/>
<path d="M324.545 0.799696L324.545 15.9453L326.887 15.9453L326.887 0.799696L324.545 0.799696Z" fill="white"/>
<path d="M332.965 0.799696L332.965 15.9453L335.307 15.9453L335.307 0.799696L332.965 0.799696Z" fill="white"/>
<path d="M341.389 0.799696L341.389 15.9453L343.73 15.9453L343.73 0.799696L341.389 0.799696Z" fill="white"/>
<path d="M349.813 0.799696L349.812 15.9453L352.154 15.9453L352.154 0.799696L349.813 0.799696Z" fill="white"/>
<path d="M358.236 0.799696L358.236 15.9453L360.578 15.9453L360.578 0.799696L358.236 0.799696Z" fill="white"/>
<path d="M366.66 0.799696L366.66 15.9453L369.002 15.9453L369.002 0.799696L366.66 0.799696Z" fill="white"/>
<path d="M375.102 0.799696L375.102 15.9453L377.443 15.9453L377.443 0.799696L375.102 0.799696Z" fill="white"/>
<path d="M383.521 0.799696L383.521 15.9453L385.863 15.9453L385.863 0.799696L383.521 0.799696Z" fill="white"/>
<path d="M391.943 0.799696L391.943 15.9453L394.285 15.9453L394.285 0.799696L391.943 0.799696Z" fill="white"/>
<path d="M400.367 0.799696L400.367 15.9453L402.709 15.9453L402.709 0.799696L400.367 0.799696Z" fill="white"/>
<path d="M408.791 0.799696L408.791 15.9453L411.133 15.9453L411.133 0.799696L408.791 0.799696Z" fill="white"/>
<path d="M417.23 0.799696L417.23 15.9453L419.572 15.9453L419.572 0.799696L417.23 0.799696Z" fill="white"/>
<path d="M425.654 0.799696L425.654 15.9453L427.996 15.9453L427.996 0.799696L425.654 0.799696Z" fill="white"/>
<path d="M434.078 0.799696L434.078 15.9453L436.42 15.9453L436.42 0.799696L434.078 0.799696Z" fill="white"/>
<path d="M442.5 0.799696L442.5 15.9453L444.842 15.9453L444.842 0.799696L442.5 0.799696Z" fill="white"/>
<path d="M450.924 0.799697L450.924 15.9453L453.265 15.9453L453.265 0.799697L450.924 0.799697Z" fill="white"/>
<path d="M459.365 0.799697L459.365 15.9453L461.707 15.9453L461.707 0.799697L459.365 0.799697Z" fill="white"/>
<path d="M467.787 0.799697L467.787 15.9453L470.129 15.9453L470.129 0.799697L467.787 0.799697Z" fill="white"/>
<path d="M476.207 0.799697L476.207 15.9453L478.549 15.9453L478.549 0.799697L476.207 0.799697Z" fill="white"/>
<path d="M484.637 0.799697L484.637 15.9453L486.978 15.9453L486.978 0.799697L484.637 0.799697Z" fill="white"/>
<path d="M493.057 0.799697L493.057 15.9453L495.398 15.9453L495.398 0.799697L493.057 0.799697Z" fill="white"/>
<path d="M501.496 0.799697L501.496 15.9453L503.838 15.9453L503.838 0.799697L501.496 0.799697Z" fill="white"/>
<path d="M509.922 0.799697L509.922 15.9453L512.264 15.9453L512.264 0.799697L509.922 0.799697Z" fill="white"/>
<path d="M518.346 0.799697L518.346 15.9453L520.687 15.9453L520.687 0.799697L518.346 0.799697Z" fill="white"/>
<path d="M526.768 0.799697L526.768 15.9453L529.109 15.9453L529.109 0.799697L526.768 0.799697Z" fill="white"/>
<path d="M535.189 0.799696L535.189 15.9453L537.531 15.9453L537.531 0.799696L535.189 0.799696Z" fill="white"/>
<path d="M543.613 0.799696L543.613 15.9453L545.955 15.9453L545.955 0.799696L543.613 0.799696Z" fill="white"/>
<path d="M552.053 0.799696L552.053 15.9453L554.394 15.9453L554.394 0.799696L552.053 0.799696Z" fill="white"/>
<path d="M560.477 0.799696L560.477 15.9453L562.818 15.9453L562.818 0.799696L560.477 0.799696Z" fill="white"/>
<path d="M568.9 0.799696L568.9 15.9453L571.242 15.9453L571.242 0.799696L568.9 0.799696Z" fill="white"/>
<path d="M577.324 0.799696L577.324 15.9453L579.666 15.9453L579.666 0.799696L577.324 0.799696Z" fill="white"/>
<path d="M585.748 0.799696L585.748 15.9453L588.09 15.9453L588.09 0.799696L585.748 0.799696Z" fill="white"/>
<path d="M594.188 0.799696L594.188 15.9453L596.529 15.9453L596.529 0.799696L594.188 0.799696Z" fill="white"/>
<path d="M602.611 0.799696L602.611 15.9453L604.953 15.9453L604.953 0.799696L602.611 0.799696Z" fill="white"/>
<path d="M611.033 0.799696L611.033 15.9453L613.375 15.9453L613.375 0.799696L611.033 0.799696Z" fill="white"/>
</svg>
